[
  {
    "type": "tab",
    "id": "b605ef10.3e22f",
    "label": "Flow 1"
  },
  {
    "type": "tab",
    "id": "cf4e178f.2d1848",
    "label": "Flow 2"
  },
  {
    "id": "cdcc285b.7b95b8",
    "type": "inject",
    "z": "b605ef10.3e22f",
    "name": "",
    "topic": "",
    "payload": "hello world",
    "payloadType": "str",
    "repeat": "",
    "crontab": "",
    "once": false,
    "x": 112.5,
    "y": 87,
    "wires": [
      []
    ]
  }
]